{
  "showOutline": false,
  "lineThickness": 0.9,
  "magicMode": false,
  "butterflyScale": 1.0,
  "numButterflies": 20,
  "flightSpeed": 1.0,
  "flappingSpeed": 1.0,
  "delayToReturn": 1.0,
  "sustainMode": false,
  "sustainDelay": 6.0,
  "shyChance": 0.5,
  "randomFlightChance": 0.005,
  "numFlybyButterflies": 12,
  "flybyChance": 0.01,
  "kinectLocation": {
    "x": 0.0,
    "y": 1.0,
    "z": -8.0,
    "normalized": {
      "x": 0.0,
      "y": 0.124034733,
      "z": -0.992277861,
      "magnitude": 1.0,
      "sqrMagnitude": 0.99999994
    },
    "magnitude": 8.062258,
    "sqrMagnitude": 65.0
  },
  "kinectRotation": {
    "x": 0.0,
    "y": 0.0,
    "z": 270.0,
    "normalized": {
      "x": 0.0,
      "y": 0.0,
      "z": 1.0,
      "magnitude": 1.0,
      "sqrMagnitude": 1.0
    },
    "magnitude": 270.0,
    "sqrMagnitude": 72900.0
  },
  "kinectScale": 2.0,
  "landingPoints": [
    {
      "x": -3.41994262,
      "y": -2.67771816,
      "z": 0.0,
      "normalized": {
        "x": -0.7873662,
        "y": -0.6164855,
        "z": 0.0,
        "normalized": {
          "x": -0.7873663,
          "y": -0.616485536,
          "z": 0.0,
          "magnitude": 1.0,
          "sqrMagnitude": 1.00000012
        },
        "magnitude": 0.99999994,
        "sqrMagnitude": 0.9999999
      },
      "magnitude": 4.343522,
      "sqrMagnitude": 18.8661823
    },
    {
      "x": -2.609971,
      "y": -2.10375881,
      "z": 0.0,
      "normalized": {
        "x": -0.778567,
        "y": -0.62756145,
        "z": 0.0,
        "magnitude": 1.0,
        "sqrMagnitude": 1.0
      },
      "magnitude": 3.35227537,
      "sqrMagnitude": 11.23775
    },
    {
      "x": -1.70894563,
      "y": -1.868744,
      "z": 0.0,
      "normalized": {
        "x": -0.6748509,
        "y": -0.73795414,
        "z": 0.0,
        "magnitude": 1.0,
        "sqrMagnitude": 1.0
      },
      "magnitude": 2.53233075,
      "sqrMagnitude": 6.412699
    },
    {
      "x": -0.7869514,
      "y": -2.01261878,
      "z": 0.0,
      "normalized": {
        "x": -0.364160538,
        "y": -0.931336164,
        "z": 0.0,
        "magnitude": 1.0,
        "sqrMagnitude": 0.99999994
      },
      "magnitude": 2.16100144,
      "sqrMagnitude": 4.669927
    },
    {
      "x": 0.0879769549,
      "y": -1.60558164,
      "z": 0.0,
      "normalized": {
        "x": 0.0547123738,
        "y": -0.998502135,
        "z": 0.0,
        "magnitude": 1.0,
        "sqrMagnitude": 0.99999994
      },
      "magnitude": 1.60799015,
      "sqrMagnitude": 2.58563232
    },
    {
      "x": 0.9130487,
      "y": -1.384614,
      "z": 0.0,
      "normalized": {
        "x": 0.5505076,
        "y": -0.8348301,
        "z": 0.0,
        "normalized": {
          "x": 0.550507665,
          "y": -0.834830165,
          "z": 0.0,
          "magnitude": 1.0,
          "sqrMagnitude": 1.00000012
        },
        "magnitude": 0.99999994,
        "sqrMagnitude": 0.99999994
      },
      "magnitude": 1.65855777,
      "sqrMagnitude": 2.75081372
    },
    {
      "x": 1.41715133,
      "y": -2.04164982,
      "z": 0.0,
      "normalized": {
        "x": 0.5702163,
        "y": -0.8214945,
        "z": 0.0,
        "normalized": {
          "x": 0.570216358,
          "y": -0.8214946,
          "z": 0.0,
          "magnitude": 1.0,
          "sqrMagnitude": 1.0
        },
        "magnitude": 0.99999994,
        "sqrMagnitude": 0.9999999
      },
      "magnitude": 2.48528719,
      "sqrMagnitude": 6.176652
    },
    {
      "x": 2.17008567,
      "y": -2.696636,
      "z": 0.0,
      "normalized": {
        "x": 0.626943231,
        "y": -0.779064953,
        "z": 0.0,
        "magnitude": 1.0,
        "sqrMagnitude": 1.0
      },
      "magnitude": 3.461375,
      "sqrMagnitude": 11.9811172
    },
    {
      "x": 3.16700888,
      "y": -2.243702,
      "z": 0.0,
      "normalized": {
        "x": 0.815975368,
        "y": -0.5780867,
        "z": 0.0,
        "magnitude": 1.0,
        "sqrMagnitude": 1.0
      },
      "magnitude": 3.88125539,
      "sqrMagnitude": 15.0641432
    }
  ],
  "defaultLandingPoints": null,
  "screenWidth": 2160,
  "screenHeight": 3840
}