{
  "showOutline": false,
  "magicMode": false,
  "butterflyScale": 1.0,
  "numButterflies": 15,
  "flightSpeed": 1.0,
  "flappingSpeed": 1.0,
  "delayToReturn": 1.0,
  "sustainMode": false,
  "sustainDelay": 6.0,
  "shyChance": 0.5,
  "randomFlightChance": 0.001,
  "numFlybyButterflies": 12,
  "flybyChance": 0.002,
  "defaultLandingPoints": null,
  "screenWidth": 1080,
  "screenHeight": 1920,
  "kinectMode": true,
  "kinectLocation": {
    "x": 0.0,
    "y": 1.0,
    "z": -8.0,
    "normalized": {
      "x": 0.0,
      "y": 0.124034733,
      "z": -0.992277861,
      "magnitude": 1.0,
      "sqrMagnitude": 0.99999994
    },
    "magnitude": 8.062258,
    "sqrMagnitude": 65.0
  },
  "kinectScale": 2.0,
  "landingPoints": [
    {
      "x": -3.2,
      "y": -1.6,
      "z": 0.0,
      "normalized": {
        "x": -0.89442724,
        "y": -0.44721362,
        "z": 0.0,
        "magnitude": 1.0,
        "sqrMagnitude": 1.00000012
      },
      "magnitude": 3.57770872,
      "sqrMagnitude": 12.8
    },
    {
      "x": -2.5,
      "y": -1.18,
      "z": 0.0,
      "normalized": {
        "x": -0.9043262,
        "y": -0.426841944,
        "z": 0.0,
        "normalized": {
          "x": -0.90432626,
          "y": -0.426841974,
          "z": 0.0,
          "magnitude": 1.0,
          "sqrMagnitude": 1.0
        },
        "magnitude": 0.99999994,
        "sqrMagnitude": 0.99999994
      },
      "magnitude": 2.76448917,
      "sqrMagnitude": 7.6424
    },
    {
      "x": -1.5,
      "y": -0.89,
      "z": 0.0,
      "normalized": {
        "x": -0.860012,
        "y": -0.510273755,
        "z": 0.0,
        "normalized": {
          "x": -0.860012054,
          "y": -0.5102738,
          "z": 0.0,
          "magnitude": 1.0,
          "sqrMagnitude": 1.00000012
        },
        "magnitude": 0.99999994,
        "sqrMagnitude": 0.99999994
      },
      "magnitude": 1.74416173,
      "sqrMagnitude": 3.0421
    },
    {
      "x": -0.6,
      "y": -0.55,
      "z": 0.0,
      "normalized": {
        "x": -0.7371541,
        "y": -0.6757246,
        "z": 0.0,
        "magnitude": 1.0,
        "sqrMagnitude": 1.0
      },
      "magnitude": 0.813941061,
      "sqrMagnitude": 0.6625
    },
    {
      "x": 0.0,
      "y": 0.0,
      "z": 0.0,
      "magnitude": 0.0,
      "sqrMagnitude": 0.0
    },
    {
      "x": 1.1,
      "y": 0.1,
      "z": 0.0,
      "normalized": {
        "x": 0.9958932,
        "y": 0.090535745,
        "z": 0.0,
        "magnitude": 1.0,
        "sqrMagnitude": 0.99999994
      },
      "magnitude": 1.10453618,
      "sqrMagnitude": 1.22
    },
    {
      "x": 2.0,
      "y": -0.7,
      "z": 0.0,
      "normalized": {
        "x": 0.9438583,
        "y": -0.3303504,
        "z": 0.0,
        "normalized": {
          "x": 0.9438584,
          "y": -0.330350429,
          "z": 0.0,
          "magnitude": 1.0,
          "sqrMagnitude": 1.0
        },
        "magnitude": 0.99999994,
        "sqrMagnitude": 0.99999994
      },
      "magnitude": 2.118962,
      "sqrMagnitude": 4.49
    },
    {
      "x": 2.5,
      "y": -1.3,
      "z": 0.0,
      "normalized": {
        "x": 0.8872168,
        "y": -0.461352736,
        "z": 0.0,
        "magnitude": 1.0,
        "sqrMagnitude": 1.0
      },
      "magnitude": 2.81780052,
      "sqrMagnitude": 7.94
    },
    {
      "x": 3.2,
      "y": -1.1,
      "z": 0.0,
      "normalized": {
        "x": 0.9456866,
        "y": -0.325079769,
        "z": 0.0,
        "magnitude": 1.0,
        "sqrMagnitude": 0.99999994
      },
      "magnitude": 3.383785,
      "sqrMagnitude": 11.4500008
    }
  ],
}